{
  "data": [
    {
      "id": 240,
      "image": "https://rx71.co/images/foods/240/thumb",
      "name": "কই মাছ",
      "unit_value": "১৫৬",
      "unit_name": "কিলোক্যালরি"
    },
    {
      "id": 183,
      "image": "https://rx71.co/images/foods/183/thumb",
      "name": "কচি তাল",
      "unit_value": "৩১",
      "unit_name": "কিলোক্যালরি"
    },
    {
      "id": 73,
      "image": "https://rx71.co/images/foods/73/thumb",
      "name": "কচু শাক (শুকনা)",
      "unit_value": "২৭৭",
      "unit_name": "কিলোক্যালরি"
    },
    {
      "id": 116,
      "image": "https://rx71.co/images/foods/116/thumb",
      "name": "কচুর মুখী",
      "unit_value": "১০৩",
      "unit_name": "কিলোক্যালরি"
    },
    {
      "id": 267,
      "image": "https://rx71.co/images/foods/267/thumb",
      "name": "কনডেন্সড মিল্ক",
      "unit_value": "১০৫",
      "unit_name": "কিলোক্যালরি"
    },
    {
      "id": 288,
      "image": "https://rx71.co/images/foods/288/thumb",
      "name": "কফি (চিনি ছাড়া)",
      "unit_value": "২",
      "unit_name": "কিলোক্যালরি"
    },
    {
      "id": 250,
      "image": "https://rx71.co/images/foods/250/thumb",
      "name": "কবুতরের মাংস",
      "unit_value": "১৪২",
      "unit_name": "কিলোক্যালরি"
    },
    {
      "id": 163,
      "image": "https://rx71.co/images/foods/163/thumb",
      "name": "কমলা (খোসা সহ)",
      "unit_value": "৬৩",
      "unit_name": "কিলোক্যালরি"
    }
  ],
  "meta": {
    "pagination": {
      "total": 34,
      "count": 8,
      "per_page": 8,
      "current_page": 1,
      "total_pages": 5,
      "links": {
        "next": "https://rx71.co/api/food-nutrition/food-listings?query=ক&page=2"
      }
    }
  }
}
